^D:\PROJECTS\_C++\AEDA\P1 - VINHOS\UTILIDADES.CPP
/c /Zi /nologo /W3 /WX- /O2 /Oi /Oy- /GL /D _MBCS /Gm- /EHsc /MT /GS /Gy /fp:precise /Zc:wchar_t /Zc:forScope /Fo"RELEASE\\" /Fd"RELEASE\VC110.PDB" /Gd /TP /analyze- D:\PROJECTS\_C++\AEDA\P1 - VINHOS\UTILIDADES.CPP
^D:\PROJECTS\_C++\AEDA\P1 - VINHOS\UVA.CPP
/c /Zi /nologo /W3 /WX- /O2 /Oi /Oy- /GL /D _MBCS /Gm- /EHsc /MT /GS /Gy /fp:precise /Zc:wchar_t /Zc:forScope /Fo"RELEASE\\" /Fd"RELEASE\VC110.PDB" /Gd /TP /analyze- D:\PROJECTS\_C++\AEDA\P1 - VINHOS\UVA.CPP
^D:\PROJECTS\_C++\AEDA\P1 - VINHOS\PRODUTO.CPP
/c /Zi /nologo /W3 /WX- /O2 /Oi /Oy- /GL /D _MBCS /Gm- /EHsc /MT /GS /Gy /fp:precise /Zc:wchar_t /Zc:forScope /Fo"RELEASE\\" /Fd"RELEASE\VC110.PDB" /Gd /TP /analyze- D:\PROJECTS\_C++\AEDA\P1 - VINHOS\PRODUTO.CPP
^D:\PROJECTS\_C++\AEDA\P1 - VINHOS\PRODUTOR.CPP
/c /Zi /nologo /W3 /WX- /O2 /Oi /Oy- /GL /D _MBCS /Gm- /EHsc /MT /GS /Gy /fp:precise /Zc:wchar_t /Zc:forScope /Fo"RELEASE\\" /Fd"RELEASE\VC110.PDB" /Gd /TP /analyze- D:\PROJECTS\_C++\AEDA\P1 - VINHOS\PRODUTOR.CPP
^D:\PROJECTS\_C++\AEDA\P1 - VINHOS\CLIENTE.CPP
/c /Zi /nologo /W3 /WX- /O2 /Oi /Oy- /GL /D _MBCS /Gm- /EHsc /MT /GS /Gy /fp:precise /Zc:wchar_t /Zc:forScope /Fo"RELEASE\\" /Fd"RELEASE\VC110.PDB" /Gd /TP /analyze- D:\PROJECTS\_C++\AEDA\P1 - VINHOS\CLIENTE.CPP
^D:\PROJECTS\_C++\AEDA\P1 - VINHOS\TRANSACAO.CPP
/c /Zi /nologo /W3 /WX- /O2 /Oi /Oy- /GL /D _MBCS /Gm- /EHsc /MT /GS /Gy /fp:precise /Zc:wchar_t /Zc:forScope /Fo"RELEASE\\" /Fd"RELEASE\VC110.PDB" /Gd /TP /analyze- D:\PROJECTS\_C++\AEDA\P1 - VINHOS\TRANSACAO.CPP
^D:\PROJECTS\_C++\AEDA\P1 - VINHOS\MAIN.CPP
/c /Zi /nologo /W3 /WX- /O2 /Oi /Oy- /GL /D _MBCS /Gm- /EHsc /MT /GS /Gy /fp:precise /Zc:wchar_t /Zc:forScope /Fo"RELEASE\\" /Fd"RELEASE\VC110.PDB" /Gd /TP /analyze- D:\PROJECTS\_C++\AEDA\P1 - VINHOS\MAIN.CPP
^D:\PROJECTS\_C++\AEDA\P1 - VINHOS\VIATURA.CPP
/c /Zi /nologo /W3 /WX- /O2 /Oi /Oy- /GL /D _MBCS /Gm- /EHsc /MT /GS /Gy /fp:precise /Zc:wchar_t /Zc:forScope /Fo"RELEASE\\" /Fd"RELEASE\VC110.PDB" /Gd /TP /analyze- D:\PROJECTS\_C++\AEDA\P1 - VINHOS\VIATURA.CPP
^D:\PROJECTS\_C++\AEDA\P1 - VINHOS\EMPRESATRANSPORTE.CPP
/c /Zi /nologo /W3 /WX- /O2 /Oi /Oy- /GL /D _MBCS /Gm- /EHsc /MT /GS /Gy /fp:precise /Zc:wchar_t /Zc:forScope /Fo"RELEASE\\" /Fd"RELEASE\VC110.PDB" /Gd /TP /analyze- D:\PROJECTS\_C++\AEDA\P1 - VINHOS\EMPRESATRANSPORTE.CPP
^D:\PROJECTS\_C++\AEDA\P1 - VINHOS\COOPERATIVA.MENU.CPP
/c /Zi /nologo /W3 /WX- /O2 /Oi /Oy- /GL /D _MBCS /Gm- /EHsc /MT /GS /Gy /fp:precise /Zc:wchar_t /Zc:forScope /Fo"RELEASE\\" /Fd"RELEASE\VC110.PDB" /Gd /TP /analyze- D:\PROJECTS\_C++\AEDA\P1 - VINHOS\COOPERATIVA.MENU.CPP
^D:\PROJECTS\_C++\AEDA\P1 - VINHOS\COOPERATIVA.CPP
/c /Zi /nologo /W3 /WX- /O2 /Oi /Oy- /GL /D _MBCS /Gm- /EHsc /MT /GS /Gy /fp:precise /Zc:wchar_t /Zc:forScope /Fo"RELEASE\\" /Fd"RELEASE\VC110.PDB" /Gd /TP /analyze- D:\PROJECTS\_C++\AEDA\P1 - VINHOS\COOPERATIVA.CPP
