^D:\PROJECTS\_C++\AEDA\P1 - VINHOS\RELEASE\CLIENTE.OBJ|D:\PROJECTS\_C++\AEDA\P1 - VINHOS\RELEASE\COOPERATIVA.MENU.OBJ|D:\PROJECTS\_C++\AEDA\P1 - VINHOS\RELEASE\COOPERATIVA.OBJ|D:\PROJECTS\_C++\AEDA\P1 - VINHOS\RELEASE\EMPRESATRANSPORTE.OBJ|D:\PROJECTS\_C++\AEDA\P1 - VINHOS\RELEASE\MAIN.OBJ|D:\PROJECTS\_C++\AEDA\P1 - VINHOS\RELEASE\PRODUTO.OBJ|D:\PROJECTS\_C++\AEDA\P1 - VINHOS\RELEASE\PRODUTOR.OBJ|D:\PROJECTS\_C++\AEDA\P1 - VINHOS\RELEASE\TRANSACAO.OBJ|D:\PROJECTS\_C++\AEDA\P1 - VINHOS\RELEASE\UTILIDADES.OBJ|D:\PROJECTS\_C++\AEDA\P1 - VINHOS\RELEASE\UVA.OBJ|D:\PROJECTS\_C++\AEDA\P1 - VINHOS\RELEASE\VIATURA.OBJ
D:\PROJECTS\_C++\AEDA\P1 - VINHOS\RELEASE\P1 - VINHOS.EXE
D:\PROJECTS\_C++\AEDA\P1 - VINHOS\RELEASE\P1 - VINHOS.PDB
